#SownAthlete5923
5135dae1-7a0a-4915-85e1-c5a923e2d98a
#FlorisCramer
1e4720af-8c1f-467a-9402-fb24b92b53f0
#snydsda20
6079c31d-7163-4c64-8434-0c1077bb18e1
#battleax678
025385c8-4434-418f-a9fe-0e788cce1a83
#Barzili
e3db245c-ad7f-4d61-9e05-40f493a29e4e
#ChildOfThorin123
32cb96b4-54d2-4c42-908b-cc8f1edb6d0d
#Zefirel
2179b7d0-0eb6-4e1e-9036-b26757cc7987
#TchuTchumas
7aa4e475-d1ae-49d7-906e-6ed391d77438
#Uradonn
86e24a9a-05a5-4bb4-9b1f-d9ef26581a1d
#Rangergrene
b2d225d3-ccd8-4158-aac7-f0c11313b2ca
#MagmaSlime_123
e588fedd-c38a-420a-b2c2-ff34068c68f5
#SauronRingMaker
86e24a9a-05a5-4bb4-9b1f-d9ef26581a1d
